// Jest Snapshot v1, https://goo.gl/fbAQLP

exports[`The Application Title should be a h1 styled with the default theme 1`] = `
.c0 {
  -webkit-align-self: center;
  -ms-flex-item-align: center;
  align-self: center;
  margin: 0;
  padding: 0;
  font-family: "Montserrat",sans-serif;
  font-weight: lighter;
  font-size: 2.2em;
  display: inline;
  color: black;
  background-color: transparent;
}

<h1
  className="c0"
>
  Test Title
</h1>
`;

exports[`The ApplicationHighlightTitle should be a h1 styled with the default theme using the highlight color 1`] = `
.c1 {
  -webkit-align-self: center;
  -ms-flex-item-align: center;
  align-self: center;
  margin: 0;
  padding: 0;
  font-family: "Montserrat",sans-serif;
  font-weight: lighter;
  font-size: 2.2em;
  display: inline;
  color: black;
  background-color: transparent;
}

.c0 {
  color: blue;
}

<h1
  className="c0 c1"
>
  Test Title
</h1>
`;

exports[`The BoldText should be a p styled with the default theme and font-weight bold 1`] = `
.c1 {
  margin: 0;
  padding: 0;
  font-family: "Montserrat",sans-serif;
  font-weight: lighter;
  font-size: 1em;
  display: inline;
  color: black;
  background-color: transparent;
}

.c0 {
  font-weight: bold;
}

<p
  className="c0 c1"
>
  Test Text
</p>
`;

exports[`The ComponentHighlighSubTitle should be a h3 styled with the default theme using the highlight color 1`] = `
.c1 {
  -webkit-align-self: center;
  -ms-flex-item-align: center;
  align-self: center;
  margin: 0;
  padding: 0;
  font-family: "Montserrat",sans-serif;
  font-weight: lighter;
  font-size: 1.8em;
  display: inline;
  color: black;
  background-color: transparent;
}

.c0 {
  color: blue;
}

<h3
  className="c0 c1"
>
  Test Title
</h3>
`;

exports[`The ComponentHighlightTitle should be a h2 styled with the default theme using the highlight color. 1`] = `
.c1 {
  -webkit-align-self: center;
  -ms-flex-item-align: center;
  align-self: center;
  margin: 0;
  padding: 0;
  font-family: "Montserrat",sans-serif;
  font-weight: lighter;
  font-size: 2em;
  display: inline;
  color: black;
  background-color: transparent;
}

.c0 {
  color: blue;
}

<h2
  className="c0 c1"
>
  Test Title
</h2>
`;

exports[`The ComponentSubTitle should be a h3 styled with the default theme 1`] = `
.c0 {
  -webkit-align-self: center;
  -ms-flex-item-align: center;
  align-self: center;
  margin: 0;
  padding: 0;
  font-family: "Montserrat",sans-serif;
  font-weight: lighter;
  font-size: 1.8em;
  display: inline;
  color: black;
  background-color: transparent;
}

<h3
  className="c0"
>
  Test Title
</h3>
`;

exports[`The ComponentTitle should be a h2 styled with the default theme 1`] = `
.c0 {
  -webkit-align-self: center;
  -ms-flex-item-align: center;
  align-self: center;
  margin: 0;
  padding: 0;
  font-family: "Montserrat",sans-serif;
  font-weight: lighter;
  font-size: 2em;
  display: inline;
  color: black;
  background-color: transparent;
}

<h2
  className="c0"
>
  Test Title
</h2>
`;

exports[`The HighlightText should be a p styled with the default theme and font-style italic 1`] = `
.c1 {
  margin: 0;
  padding: 0;
  font-family: "Montserrat",sans-serif;
  font-weight: lighter;
  font-size: 1em;
  display: inline;
  color: black;
  background-color: transparent;
}

.c0 {
  font-style: italic;
}

<p
  className="c0 c1"
>
  Test Text
</p>
`;

exports[`The ItemHighlightSubTitle should be a h5 styled with the default theme using the highlight color 1`] = `
.c1 {
  -webkit-align-self: center;
  -ms-flex-item-align: center;
  align-self: center;
  margin: 0;
  padding: 0;
  font-family: "Montserrat",sans-serif;
  font-weight: lighter;
  font-size: 1.4em;
  display: inline;
  color: black;
  background-color: transparent;
}

.c0 {
  color: blue;
}

<h5
  className="c0 c1"
>
  Test Title
</h5>
`;

exports[`The ItemHighlightTitle should be a h4 styled with the default theme using the highlight color 1`] = `
.c1 {
  -webkit-align-self: center;
  -ms-flex-item-align: center;
  align-self: center;
  margin: 0;
  padding: 0;
  font-family: "Montserrat",sans-serif;
  font-weight: lighter;
  font-size: 1.6em;
  display: inline;
  color: black;
  background-color: transparent;
}

.c0 {
  color: blue;
}

<h4
  className="c0 c1"
>
  Test Title
</h4>
`;

exports[`The ItemSubTitle should be a h5 styled with the default theme 1`] = `
.c0 {
  -webkit-align-self: center;
  -ms-flex-item-align: center;
  align-self: center;
  margin: 0;
  padding: 0;
  font-family: "Montserrat",sans-serif;
  font-weight: lighter;
  font-size: 1.4em;
  display: inline;
  color: black;
  background-color: transparent;
}

<h5
  className="c0"
>
  Test Title
</h5>
`;

exports[`The ItemTitle should be a h4 styled with the default theme 1`] = `
.c0 {
  -webkit-align-self: center;
  -ms-flex-item-align: center;
  align-self: center;
  margin: 0;
  padding: 0;
  font-family: "Montserrat",sans-serif;
  font-weight: lighter;
  font-size: 1.6em;
  display: inline;
  color: black;
  background-color: transparent;
}

<h4
  className="c0"
>
  Test Title
</h4>
`;

exports[`The Text should be a p styled with the default theme 1`] = `
.c0 {
  margin: 0;
  padding: 0;
  font-family: "Montserrat",sans-serif;
  font-weight: lighter;
  font-size: 1em;
  display: inline;
  color: black;
  background-color: transparent;
}

<p
  className="c0"
>
  Test Title
</p>
`;
